#Page	Category	Tags:list	Name	Text	Description	Keywords	Website:link
blind-chemistry	Restaurant	Cafe	Blind Ch3mistry	lorem ipsum	lorem ipsum	lorem ipsum	http://blindch3mistry.com/our-menu/
toscano	Restaurant	Restaurant, Lounge, Pizzeria	Toscano	dolor sit amet	dolor sit amet	dolor sit amet	http://www.toscano.co.in/
maiden	Apparel	Clothing Store	Maiden	constucteur	constucteur	constucteur	https://maiden.business.site/
auroville	Shop	Ethnic Items	Naturally Auroville Store	lorem ipsum	lorem ipsum	lorem ipsum	http://naturallyaurovillechennai.com/
gatsby	Apparel	Bespoke Tailoring	Gatsby Collections	dolor sit amet	dolor sit amet	dolor sit amet	http://gatsby.in
tryst	Restaurant	Cafe, Continental, Italian, Indian	Tryst Cafe	constucteur	constucteur	constucteur	https://www.trystgourmet.in/